input7, Dá duas respostas 3 4 (Correta) e 1 2 3 4 (Incorreta)
input6, Dá duas respostas 1 2 (Correta) e 1 2 3 4 (Incorreta)
input5, resposta 1 3 (Incorreta) ==> 1 3 5 (Correta)
input9, respota  11 13 (Incorreta) ==>  (Correta)
input10, resposta 1 2 3 (Incorreta) ==> 1 2 4 (Correta)

Testar casos de inviabilidade